{
  "quoteSummary": {
    "result": [
      {
        "summaryDetail": {
          "maxAge": 1,
          "priceHint": {
            "raw": 2,
            "fmt": "2",
            "longFmt": "2"
          },
          "previousClose": {
            "raw": 172.68,
            "fmt": "172,68"
          },
          "open": {
            "raw": 171.68,
            "fmt": "171,68"
          },
          "dayLow": {
            "raw": 170.68,
            "fmt": "170,68"
          },
          "dayHigh": {
            "raw": 174.0974,
            "fmt": "174,10"
          },
          "regularMarketPreviousClose": {
            "raw": 172.68,
            "fmt": "172,68"
          },
          "regularMarketOpen": {
            "raw": 171.68,
            "fmt": "171,68"
          },
          "regularMarketDayLow": {
            "raw": 170.68,
            "fmt": "170,68"
          },
          "regularMarketDayHigh": {
            "raw": 174.0974,
            "fmt": "174,10"
          },
          "dividendRate": {
            "raw": 0.88,
            "fmt": "0,88"
          },
          "dividendYield": {
            "raw": 0.0050999997,
            "fmt": "0,51 %"
          },
          "exDividendDate": {
            "raw": 1643932800,
            "fmt": "2022-02-04"
          },
          "payoutRatio": {
            "raw": 0.1434,
            "fmt": "14,34 %"
          },
          "fiveYearAvgDividendYield": {
            "raw": 1.15,
            "fmt": "1,15"
          },
          "beta": {
            "raw": 1.187468,
            "fmt": "1,19"
          },
          "trailingPE": {
            "raw": 28.660017,
            "fmt": "28,66"
          },
          "forwardPE": {
            "raw": 26.319082,
            "fmt": "26,32"
          },
          "volume": {
            "raw": 82465400,
            "fmt": "82,47M",
            "longFmt": "82 465 400"
          },
          "regularMarketVolume": {
            "raw": 82465400,
            "fmt": "82,47M",
            "longFmt": "82 465 400"
          },
          "averageVolume": {
            "raw": 101312493,
            "fmt": "101,31M",
            "longFmt": "101 312 493"
          },
          "averageVolume10days": {
            "raw": 118719540,
            "fmt": "118,72M",
            "longFmt": "118 719 540"
          },
          "averageDailyVolume10Day": {
            "raw": 118719540,
            "fmt": "118,72M",
            "longFmt": "118 719 540"
          },
          "bid": {
            "raw": 172.48,
            "fmt": "172,48"
          },
          "ask": {
            "raw": 172.54,
            "fmt": "172,54"
          },
          "bidSize": {
            "raw": 800,
            "fmt": "800",
            "longFmt": "800"
          },
          "askSize": {
            "raw": 800,
            "fmt": "800",
            "longFmt": "800"
          },
          "marketCap": {
            "raw": 2813301358592,
            "fmt": "2,81T",
            "longFmt": "2 813 301 358 592"
          },
          "yield": {},
          "ytdReturn": {},
          "totalAssets": {},
          "expireDate": {},
          "strikePrice": {},
          "openInterest": {},
          "fiftyTwoWeekLow": {
            "raw": 116.21,
            "fmt": "116,21"
          },
          "fiftyTwoWeekHigh": {
            "raw": 182.94,
            "fmt": "182,94"
          },
          "priceToSalesTrailing12Months": {
            "raw": 7.4362416,
            "fmt": "7,44"
          },
          "fiftyDayAverage": {
            "raw": 170.8888,
            "fmt": "170,89"
          },
          "twoHundredDayAverage": {
            "raw": 148.9294,
            "fmt": "148,93"
          },
          "trailingAnnualDividendRate": {
            "raw": 0.865,
            "fmt": "0,87"
          },
          "trailingAnnualDividendYield": {
            "raw": 0.005009266,
            "fmt": "0,50 %"
          },
          "navPrice": {},
          "currency": "USD",
          "fromCurrency": null,
          "toCurrency": null,
          "lastMarket": null,
          "volume24Hr": {},
          "volumeAllCurrencies": {},
          "circulatingSupply": {},
          "algorithm": null,
          "maxSupply": {},
          "startDate": {},
          "tradeable": false
        },
        "price": {
          "maxAge": 1,
          "preMarketChange": {},
          "preMarketPrice": {},
          "preMarketSource": "FREE_REALTIME",
          "postMarketChangePercent": {
            "raw": 7.54132E-4,
            "fmt": "0,08 %"
          },
          "postMarketChange": {
            "raw": 0.130005,
            "fmt": "0,13"
          },
          "postMarketTime": 1644022795,
          "postMarketPrice": {
            "raw": 172.52,
            "fmt": "172,52"
          },
          "postMarketSource": "FREE_REALTIME",
          "regularMarketChangePercent": {
            "raw": -0.0016793682,
            "fmt": "-0,17 %"
          },
          "regularMarketChange": {
            "raw": -0.2899933,
            "fmt": "-0,29"
          },
          "regularMarketTime": 1644008403,
          "priceHint": {
            "raw": 2,
            "fmt": "2",
            "longFmt": "2"
          },
          "regularMarketPrice": {
            "raw": 172.39,
            "fmt": "172,39"
          },
          "regularMarketDayHigh": {
            "raw": 174.0974,
            "fmt": "174,10"
          },
          "regularMarketDayLow": {
            "raw": 170.68,
            "fmt": "170,68"
          },
          "regularMarketVolume": {
            "raw": 82465400,
            "fmt": "82,47M",
            "longFmt": "82 465 400,00"
          },
          "averageDailyVolume10Day": {
            "raw": 118719540,
            "fmt": "118,72M",
            "longFmt": "118 719 540"
          },
          "averageDailyVolume3Month": {
            "raw": 101312493,
            "fmt": "101,31M",
            "longFmt": "101 312 493"
          },
          "regularMarketPreviousClose": {
            "raw": 172.68,
            "fmt": "172,68"
          },
          "regularMarketSource": "FREE_REALTIME",
          "regularMarketOpen": {
            "raw": 171.68,
            "fmt": "171,68"
          },
          "strikePrice": {},
          "openInterest": {},
          "exchange": "NMS",
          "exchangeName": "NasdaqGS",
          "exchangeDataDelayedBy": 0,
          "marketState": "CLOSED",
          "quoteType": "EQUITY",
          "symbol": "AAPL",
          "underlyingSymbol": null,
          "shortName": "Apple Inc.",
          "longName": "Apple Inc.",
          "currency": "USD",
          "quoteSourceName": "Nasdaq Real Time Price",
          "currencySymbol": "$",
          "fromCurrency": null,
          "toCurrency": null,
          "lastMarket": null,
          "volume24Hr": {},
          "volumeAllCurrencies": {},
          "circulatingSupply": {},
          "marketCap": {
            "raw": 2813301358592,
            "fmt": "2,81T",
            "longFmt": "2 813 301 358 592,00"
          }
        }
      }
    ],
    "error": null
  }
}